<?xml version="1.0" encoding="UTF-8"?>
<svg width="30px" height="28px" viewBox="0 0 30 28" version="1.1" xmlns="http://www.w3.org/2000/svg" xmlns:xlink="http://www.w3.org/1999/xlink">
    <!-- Generator: Sketch 50.2 (55047) - http://www.bohemiancoding.com/sketch -->
    <title>icon / heart</title>
    <desc>Created with Sketch.</desc>
    <defs>
        <path d="M28.3109353,5.17491749 C26.769358,3.59075908 24.7139217,2.66666667 22.5300206,2.66666667 C20.3461195,2.66666667 18.1622184,3.59075908 16.6206411,5.17491749 C16.6206411,5.17491749 16.6206411,5.17491749 16.6206411,5.17491749 L16.106782,5.7029703 L15.5929229,5.17491749 C12.3813037,1.87458746 7.11424804,1.87458746 3.90262876,5.17491749 C2.23258673,6.75907591 1.33333333,9.00330033 1.33333333,11.2475248 C1.33333333,13.4917492 2.23258673,15.7359736 3.77416399,17.320132 L15.0790638,28.9372937 C15.3359934,29.2013201 15.5929229,29.3333333 15.9783172,29.3333333 C16.3637116,29.3333333 16.6206411,29.2013201 16.8775706,28.9372937 L28.1824705,17.320132 C29.7240478,15.7359736 30.6233012,13.4917492 30.6233012,11.2475248 C30.8802307,9.00330033 29.9809773,6.75907591 28.3109353,5.17491749 Z M26.5124285,15.4719472 L16.106782,26.1650165 L5.70113555,15.4719472 C4.54495261,14.2838284 4.03109353,12.8316832 4.03109353,11.2475248 C4.03109353,9.66336634 4.67341738,8.21122112 5.70113555,7.02310231 C6.72885372,5.8349835 8.27043098,5.30693069 9.68354346,5.30693069 C11.2251207,5.30693069 12.6382332,5.8349835 13.7944161,7.02310231 L15.2075286,8.47524752 C15.7213877,9.00330033 16.4921763,9.00330033 17.0060354,8.47524752 L18.2906831,7.02310231 C18.2906831,7.02310231 18.2906831,7.02310231 18.2906831,7.02310231 C19.4468661,5.9669967 20.8599786,5.30693069 22.5300206,5.30693069 C22.5300206,5.30693069 22.5300206,5.30693069 22.5300206,5.30693069 C24.0715978,5.30693069 25.4847103,5.9669967 26.6408933,7.02310231 C27.6686114,8.21122112 28.3109353,9.66336634 28.3109353,11.2475248 C28.3109353,12.8316832 27.6686114,14.2838284 26.5124285,15.4719472 Z" id="path-1"></path>
    </defs>
    <g id="Account" stroke="none" stroke-width="1" fill="none" fill-rule="evenodd" opacity="0.5">
        <g transform="translate(-129.000000, -754.000000)" id="Nav">
            <g transform="translate(0.000000, 740.000000)">
                <g id="icon-/-heart" transform="translate(128.000000, 12.000000)">
                    <mask id="mask-2" fill="white">
                        <use xlink:href="#path-1"></use>
                    </mask>
                    <use id="Mask" fill="#000000" fill-rule="nonzero" xlink:href="#path-1"></use>
                    <g id="color-/-white" mask="url(#mask-2)" fill="#FFFFFF" fill-rule="evenodd">
                        <rect id="Shape" x="0" y="0" width="32" height="32"></rect>
                    </g>
                </g>
            </g>
        </g>
    </g>
</svg>